testname is jbiadmin02000
IGNORE Tue Oct 2 15:33:55 PDT 2007 Executing 2000a.xml...
IGNORE Apache Ant version 1.6.5 compiled on June 2 2005
IGNORE JBI_HOME is /gf/jbi
IGNORE JBI_DOMAIN_ROOT is /gf/domains/CAS
IGNORE jbi_instance_name is server
IGNORE jmx.provider is service:jmx:rmi:///jndi/rmi://LIFEBOOK-98440:8789/management/rmi-jmx-connector
##### Result of loadNewInstaller = com.sun.jbi:Target=sync,ServiceType=Installer,ComponentName=manage-binding-1
##### Result of install = com.sun.jbi:Target=sync,ServiceType=ComponentLifeCycle,ComponentName=manage-binding-1
##### Result of unloadInstaller = true
##### Result of start = 
##### Result of loadNewInstaller = com.sun.jbi:Target=sync,ServiceType=Installer,ComponentName=manage-binding-2
##### Result of install = com.sun.jbi:Target=sync,ServiceType=ComponentLifeCycle,ComponentName=manage-binding-2
##### Result of unloadInstaller = true
##### Result of start = 
##### Result of deploy = <jbi-task version="1.0" xmlns="http://java.sun.com/xml/ns/jbi/management-message"><jbi-task-result><frmwk-task-result><frmwk-task-result-details><task-result-details><task-id>deploy</task-id><task-result>SUCCESS</task-result></task-result-details><locale>en_US</locale></frmwk-task-result-details></frmwk-task-result><component-task-result><component-name>manage-binding-1</component-name><component-task-result-details><task-result-details><task-id>deploy</task-id><task-result>SUCCESS</task-result></task-result-details></component-task-result-details></component-task-result><component-task-result><component-name>manage-binding-2</component-name><component-task-result-details><task-result-details><task-id>deploy</task-id><task-result>SUCCESS</task-result></task-result-details></component-task-result-details></component-task-result></jbi-task-result></jbi-task>
##### Result of start = <jbi-task version="1.0" xmlns="http://java.sun.com/xml/ns/jbi/management-message"><jbi-task-result><frmwk-task-result><frmwk-task-result-details><task-result-details><task-id>start</task-id><task-result>SUCCESS</task-result></task-result-details><locale>en_US</locale></frmwk-task-result-details></frmwk-task-result><component-task-result><component-name>manage-binding-1</component-name><component-task-result-details><task-result-details><task-id>start</task-id><task-result>SUCCESS</task-result></task-result-details></component-task-result-details></component-task-result><component-task-result><component-name>manage-binding-2</component-name><component-task-result-details><task-result-details><task-id>start</task-id><task-result>SUCCESS</task-result></task-result-details></component-task-result-details></component-task-result></jbi-task-result></jbi-task>
##### Result of installSharedLibrary = TestSharedLibrary
##### Result of loadNewInstaller = com.sun.jbi:Target=sync,ServiceType=Installer,ComponentName=SunTransformationEngine
##### Result of install = com.sun.jbi:Target=sync,ServiceType=ComponentLifeCycle,ComponentName=SunTransformationEngine
##### Result of unloadInstaller = true
##### Value of attribute heartBeatInterval has been set to 10000
##### Value of attribute heartBeatInterval has been set to 8000
##### Value of attribute componentTimeout has been set to 10000
##### Value of attribute componentTimeout has been set to 8000
##### Value of attribute serviceUnitTimeout has been set to 15000
##### Value of attribute serviceUnitTimeout has been set to 9000

BUILD SUCCESSFUL
IGNORE Total time: 11 seconds
Starting instance : sync
Command start-instance executed successfully.
Stopping instance : sync
Command stop-instance executed successfully.
<?xml version="1.0" encoding="UTF-8" standalone="yes"?>
<jbi xmlns="http://java.sun.com/xml/ns/jbi/registry">
    <components>
        <component  file-name="component-binding1.jar" name="manage-binding-1"/>
        <component  file-name="component-binding2.jar" name="manage-binding-2"/>
        <component upgrade-number="1"  file-name="transformationengine.jar" name="SunTransformationEngine"/>
    </components>
    <shared-libraries>
        <shared-library  file-name="wsdlsl.jar" name="sun-wsdl-library"/>
        <shared-library  file-name="shared-library.jar" name="TestSharedLibrary"/>
    </shared-libraries>
    <service-assemblies>
        <service-assembly  file-name="deploy-sa.jar" name="esbadmin00089-sa"/>
    </service-assemblies>
    <servers>
        <server name-ref="sync">
            <component-ref   state="Started" name-ref="manage-binding-1">
                <service-units>
                    <service-unit service-assembly-ref="esbadmin00089-sa" state="Started" name="esbadmin00089-su-1"/>
                </service-units>
            </component-ref>
            <component-ref   state="Started" name-ref="manage-binding-2">
                <service-units>
                    <service-unit service-assembly-ref="esbadmin00089-sa" state="Started" name="esbadmin00089-su-2"/>
                </service-units>
            </component-ref>
            <component-ref   state="Shutdown" name-ref="SunTransformationEngine">
                <service-units/>
            </component-ref>
            <shared-library-ref  name-ref="sun-wsdl-library"/>
            <shared-library-ref  name-ref="TestSharedLibrary"/>
            <service-assembly-ref name-ref="esbadmin00089-sa"/>
        </server>
    </servers>
    <clusters/>
    <configs>
        <config name="domain-config">
            <config-type category="Installation">
                <property>
                    <name>componentTimeout</name>
                    <value>10000</value>
                </property>
                <property>
                    <name>installationTimeout</name>
                    <value>0</value>
                </property>
                <property>
                    <name>autoInstallEnabled</name>
                    <value>true</value>
                </property>
                <property>
                    <name>autoUninstallEnabled</name>
                    <value>true</value>
                </property>
                <property>
                    <name>autoReinstallEnabled</name>
                    <value>true</value>
                </property>
                <property>
                    <name>autoInstallDir</name>
IGNORE                     <value>C:/cygwin/gf/domains/CAS/jbi/autoinstall</value>
                </property>
            </config-type>
            <config-type category="System">
                <property>
                    <name>jbiHome</name>
IGNORE                     <value>C:\cygwin\gf/jbi</value>
                </property>
                <property>
                    <name>heartBeatInterval</name>
                    <value>10000</value>
                </property>
                <property>
                    <name>msgSvcTimingStatisticsEnabled</name>
                    <value>false</value>
                </property>
            </config-type>
            <config-type category="Logger">
                <property>
                    <name>com.sun.jbi.framework</name>
                    <value>DEFAULT</value>
                </property>
                <property>
                    <name>com.sun.jbi.messaging</name>
                    <value>DEFAULT</value>
                </property>
                <property>
                    <name>com.sun.jbi.management</name>
                    <value>DEFAULT</value>
                </property>
                <property>
                    <name>com.sun.jbi.management.AdminService</name>
                    <value>DEFAULT</value>
                </property>
                <property>
                    <name>com.sun.jbi.management.InstallationService</name>
                    <value>DEFAULT</value>
                </property>
                <property>
                    <name>com.sun.jbi.management.DeploymentService</name>
                    <value>DEFAULT</value>
                </property>
                <property>
                    <name>com.sun.jbi.management.ConfigurationService</name>
                    <value>DEFAULT</value>
                </property>
                <property>
                    <name>com.sun.jbi.management.LoggingService</name>
                    <value>DEFAULT</value>
                </property>
            </config-type>
            <config-type category="Deployment">
                <property>
                    <name>serviceUnitTimeout</name>
                    <value>15000</value>
                </property>
                <property>
                    <name>deploymentTimeout</name>
                    <value>0</value>
                </property>
                <property>
                    <name>autoDeployEnabled</name>
                    <value>false</value>
                </property>
                <property>
                    <name>autoUndeployEnabled</name>
                    <value>false</value>
                </property>
                <property>
                    <name>autoRedeployEnabled</name>
                    <value>false</value>
                </property>
                <property>
                    <name>autoDeployDir</name>
IGNORE                     <value>C:/cygwin/gf/domains/CAS/autodeploy</value>
                </property>
                <property>
                    <name>startOnDeploy</name>
                    <value>true</value>
                </property>
                <property>
                    <name>startOnVerify</name>
                    <value>true</value>
                </property>
            </config-type>
        </config>
        <config name="sync-config">
            <config-type category="System">
                <property>
                    <name>heartBeatInterval</name>
                    <value>8000</value>
                </property>
            </config-type>
            <config-type category="Deployment">
                <property>
                    <name>serviceUnitTimeout</name>
                    <value>9000</value>
                </property>
            </config-type>
            <config-type category="Installation">
                <property>
                    <name>componentTimeout</name>
                    <value>8000</value>
                </property>
            </config-type>
        </config>
    </configs>
</jbi>
IGNORE Tue Oct 2 15:35:32 PDT 2007 Executing 2000b.xml...
IGNORE JBI_HOME is /gf/jbi
IGNORE JBI_DOMAIN_ROOT is /gf/domains/CAS
IGNORE jbi_instance_name is server
IGNORE jmx.provider is service:jmx:rmi:///jndi/rmi://LIFEBOOK-98440:8789/management/rmi-jmx-connector
##### Result of stop = <jbi-task version="1.0" xmlns="http://java.sun.com/xml/ns/jbi/management-message"><jbi-task-result><frmwk-task-result><frmwk-task-result-details><task-result-details><task-id>stop</task-id><task-result>SUCCESS</task-result></task-result-details><locale>en_US</locale></frmwk-task-result-details></frmwk-task-result><component-task-result><component-name>manage-binding-1</component-name><component-task-result-details><task-result-details><task-id>stop</task-id><task-result>SUCCESS</task-result></task-result-details></component-task-result-details></component-task-result><component-task-result><component-name>manage-binding-2</component-name><component-task-result-details><task-result-details><task-id>stop</task-id><task-result>SUCCESS</task-result></task-result-details></component-task-result-details></component-task-result></jbi-task-result></jbi-task>
##### Result of uninstallSharedLibrary = true
##### Value of attribute heartBeatInterval has been set to 10000
##### Value of attribute componentTimeout has been set to 10000
##### Value of attribute serviceUnitTimeout has been set to 15000

BUILD SUCCESSFUL
IGNORE Total time: 5 seconds
Starting instance : sync
Command start-instance executed successfully.
Stopping instance : sync
Command stop-instance executed successfully.
<?xml version="1.0" encoding="UTF-8" standalone="yes"?>
<jbi xmlns="http://java.sun.com/xml/ns/jbi/registry">
    <components>
        <component  file-name="component-binding1.jar" name="manage-binding-1"/>
        <component  file-name="component-binding2.jar" name="manage-binding-2"/>
        <component upgrade-number="2"  file-name="transformationengine.jar" name="SunTransformationEngine"/>
    </components>
    <shared-libraries>
        <shared-library  file-name="wsdlsl.jar" name="sun-wsdl-library"/>
    </shared-libraries>
    <service-assemblies>
        <service-assembly  file-name="deploy-sa.jar" name="esbadmin00089-sa"/>
    </service-assemblies>
    <servers>
        <server name-ref="sync">
            <component-ref   state="Started" name-ref="manage-binding-1">
                <service-units>
                    <service-unit service-assembly-ref="esbadmin00089-sa" state="Stopped" name="esbadmin00089-su-1"/>
                </service-units>
            </component-ref>
            <component-ref   state="Started" name-ref="manage-binding-2">
                <service-units>
                    <service-unit service-assembly-ref="esbadmin00089-sa" state="Stopped" name="esbadmin00089-su-2"/>
                </service-units>
            </component-ref>
            <component-ref   state="Shutdown" name-ref="SunTransformationEngine">
                <service-units/>
            </component-ref>
            <shared-library-ref  name-ref="sun-wsdl-library"/>
            <service-assembly-ref name-ref="esbadmin00089-sa"/>
        </server>
    </servers>
    <clusters/>
    <configs>
        <config name="domain-config">
            <config-type category="Installation">
                <property>
                    <name>componentTimeout</name>
                    <value>10000</value>
                </property>
                <property>
                    <name>installationTimeout</name>
                    <value>0</value>
                </property>
                <property>
                    <name>autoInstallEnabled</name>
                    <value>true</value>
                </property>
                <property>
                    <name>autoUninstallEnabled</name>
                    <value>true</value>
                </property>
                <property>
                    <name>autoReinstallEnabled</name>
                    <value>true</value>
                </property>
                <property>
                    <name>autoInstallDir</name>
IGNORE                     <value>C:/cygwin/gf/domains/CAS/jbi/autoinstall</value>
                </property>
            </config-type>
            <config-type category="System">
                <property>
                    <name>jbiHome</name>
IGNORE                     <value>C:\cygwin\gf/jbi</value>
                </property>
                <property>
                    <name>heartBeatInterval</name>
                    <value>10000</value>
                </property>
                <property>
                    <name>msgSvcTimingStatisticsEnabled</name>
                    <value>false</value>
                </property>
            </config-type>
            <config-type category="Logger">
                <property>
                    <name>com.sun.jbi.framework</name>
                    <value>DEFAULT</value>
                </property>
                <property>
                    <name>com.sun.jbi.messaging</name>
                    <value>DEFAULT</value>
                </property>
                <property>
                    <name>com.sun.jbi.management</name>
                    <value>DEFAULT</value>
                </property>
                <property>
                    <name>com.sun.jbi.management.AdminService</name>
                    <value>DEFAULT</value>
                </property>
                <property>
                    <name>com.sun.jbi.management.InstallationService</name>
                    <value>DEFAULT</value>
                </property>
                <property>
                    <name>com.sun.jbi.management.DeploymentService</name>
                    <value>DEFAULT</value>
                </property>
                <property>
                    <name>com.sun.jbi.management.ConfigurationService</name>
                    <value>DEFAULT</value>
                </property>
                <property>
                    <name>com.sun.jbi.management.LoggingService</name>
                    <value>DEFAULT</value>
                </property>
            </config-type>
            <config-type category="Deployment">
                <property>
                    <name>serviceUnitTimeout</name>
                    <value>15000</value>
                </property>
                <property>
                    <name>deploymentTimeout</name>
                    <value>0</value>
                </property>
                <property>
                    <name>autoDeployEnabled</name>
                    <value>false</value>
                </property>
                <property>
                    <name>autoUndeployEnabled</name>
                    <value>false</value>
                </property>
                <property>
                    <name>autoRedeployEnabled</name>
                    <value>false</value>
                </property>
                <property>
                    <name>autoDeployDir</name>
IGNORE                     <value>C:/cygwin/gf/domains/CAS/autodeploy</value>
                </property>
                <property>
                    <name>startOnDeploy</name>
                    <value>true</value>
                </property>
                <property>
                    <name>startOnVerify</name>
                    <value>true</value>
                </property>
            </config-type>
        </config>
        <config name="sync-config">
            <config-type category="System"/>
            <config-type category="Deployment"/>
            <config-type category="Installation"/>
        </config>
    </configs>
</jbi>
IGNORE Tue Oct 2 15:37:03 PDT 2007 Executing 2000c.xml...
IGNORE JBI_HOME is /gf/jbi
IGNORE JBI_DOMAIN_ROOT is /gf/domains/CAS
IGNORE jbi_instance_name is server
IGNORE jmx.provider is service:jmx:rmi:///jndi/rmi://LIFEBOOK-98440:8789/management/rmi-jmx-connector
##### Result of undeploy = <jbi-task version="1.0" xmlns="http://java.sun.com/xml/ns/jbi/management-message"><jbi-task-result><frmwk-task-result><frmwk-task-result-details><task-result-details><task-id>undeploy</task-id><task-result>SUCCESS</task-result></task-result-details><locale>en_US</locale></frmwk-task-result-details></frmwk-task-result><component-task-result><component-name>manage-binding-1</component-name><component-task-result-details><task-result-details><task-id>undeploy</task-id><task-result>SUCCESS</task-result></task-result-details></component-task-result-details></component-task-result><component-task-result><component-name>manage-binding-2</component-name><component-task-result-details><task-result-details><task-id>undeploy</task-id><task-result>SUCCESS</task-result></task-result-details></component-task-result-details></component-task-result></jbi-task-result></jbi-task>
##### Result of stop = 
##### Result of stop = 
##### Result of shutDown = 
##### Result of shutDown = 
##### Result of loadInstaller = com.sun.jbi:Target=sync,ServiceType=Installer,ComponentName=manage-binding-1
##### Result of unloadInstaller = true
##### Result of loadInstaller = com.sun.jbi:Target=sync,ServiceType=Installer,ComponentName=manage-binding-2
##### Result of unloadInstaller = true
##### Result of loadInstaller = com.sun.jbi:Target=sync,ServiceType=Installer,ComponentName=SunTransformationEngine
##### Result of unloadInstaller = true

BUILD SUCCESSFUL
IGNORE Total time: 6 seconds
Starting instance : sync
Command start-instance executed successfully.
Stopping instance : sync
Command stop-instance executed successfully.
<?xml version="1.0" encoding="UTF-8" standalone="yes"?>
<jbi xmlns="http://java.sun.com/xml/ns/jbi/registry">
    <components/>
    <shared-libraries>
        <shared-library  file-name="wsdlsl.jar" name="sun-wsdl-library"/>
    </shared-libraries>
    <service-assemblies/>
    <servers>
        <server name-ref="sync">
            <shared-library-ref  name-ref="sun-wsdl-library"/>
        </server>
    </servers>
    <clusters/>
    <configs>
        <config name="domain-config">
            <config-type category="Installation">
                <property>
                    <name>componentTimeout</name>
                    <value>10000</value>
                </property>
                <property>
                    <name>installationTimeout</name>
                    <value>0</value>
                </property>
                <property>
                    <name>autoInstallEnabled</name>
                    <value>true</value>
                </property>
                <property>
                    <name>autoUninstallEnabled</name>
                    <value>true</value>
                </property>
                <property>
                    <name>autoReinstallEnabled</name>
                    <value>true</value>
                </property>
                <property>
                    <name>autoInstallDir</name>
IGNORE                     <value>C:/cygwin/gf/domains/CAS/jbi/autoinstall</value>
                </property>
            </config-type>
            <config-type category="System">
                <property>
                    <name>jbiHome</name>
IGNORE                     <value>C:\cygwin\gf/jbi</value>
                </property>
                <property>
                    <name>heartBeatInterval</name>
                    <value>10000</value>
                </property>
                <property>
                    <name>msgSvcTimingStatisticsEnabled</name>
                    <value>false</value>
                </property>
            </config-type>
            <config-type category="Logger">
                <property>
                    <name>com.sun.jbi.framework</name>
                    <value>DEFAULT</value>
                </property>
                <property>
                    <name>com.sun.jbi.messaging</name>
                    <value>DEFAULT</value>
                </property>
                <property>
                    <name>com.sun.jbi.management</name>
                    <value>DEFAULT</value>
                </property>
                <property>
                    <name>com.sun.jbi.management.AdminService</name>
                    <value>DEFAULT</value>
                </property>
                <property>
                    <name>com.sun.jbi.management.InstallationService</name>
                    <value>DEFAULT</value>
                </property>
                <property>
                    <name>com.sun.jbi.management.DeploymentService</name>
                    <value>DEFAULT</value>
                </property>
                <property>
                    <name>com.sun.jbi.management.ConfigurationService</name>
                    <value>DEFAULT</value>
                </property>
                <property>
                    <name>com.sun.jbi.management.LoggingService</name>
                    <value>DEFAULT</value>
                </property>
            </config-type>
            <config-type category="Deployment">
                <property>
                    <name>serviceUnitTimeout</name>
                    <value>15000</value>
                </property>
                <property>
                    <name>deploymentTimeout</name>
                    <value>0</value>
                </property>
                <property>
                    <name>autoDeployEnabled</name>
                    <value>false</value>
                </property>
                <property>
                    <name>autoUndeployEnabled</name>
                    <value>false</value>
                </property>
                <property>
                    <name>autoRedeployEnabled</name>
                    <value>false</value>
                </property>
                <property>
                    <name>autoDeployDir</name>
IGNORE                     <value>C:/cygwin/gf/domains/CAS/autodeploy</value>
                </property>
                <property>
                    <name>startOnDeploy</name>
                    <value>true</value>
                </property>
                <property>
                    <name>startOnVerify</name>
                    <value>true</value>
                </property>
            </config-type>
        </config>
        <config name="sync-config">
            <config-type category="System"/>
            <config-type category="Deployment"/>
            <config-type category="Installation"/>
        </config>
    </configs>
</jbi>
