testname is jbiadmin00000
 
IGNORE ASADMIN_PORT=7751
JBI_DOMAIN_NAME=CAS
 
Creating a test cluster to test system component addition
Command create-cluster executed successfully.
 
List binding and engine components and Shared Libraries
============================================================
  List of Binding Components for Target "testClusterOne"
============================================================
Name       : sun-http-binding
IGNORE State      : Shutdown
Description: HTTP binding component. Provides message processing capabilities over HTTP protocol in a JBI 1.0 compliant environment.
------------------------------------------------------------

BUILD SUCCESSFUL
Total time: 1 second
============================================================
  List of Service Engines for Target "testClusterOne"
============================================================
Name       : sun-javaee-engine
IGNORE State      : Shutdown
Description: Java Enterprise Edition Service Engine
------------------------------------------------------------

BUILD SUCCESSFUL
Total time: 1 second
============================================================
  List of Shared Libraries for Target "testClusterOne"
============================================================
Name       : sun-wsdl-library
State      : Installed
Description: This library provides WSDL 1.1/2.0 parsing support and message-wrapping utilities used to send WSDL 1.1-defined messages over the Normalized Message Router (NMR).
------------------------------------------------------------

BUILD SUCCESSFUL
Total time: 1 second
 
Deleting the test cluster created for test system component addition
Command delete-cluster executed successfully.
 
Starting node-agent : agent1
IGNORE Redirecting output to /export/home/russt/cvs/rtoesb/build/open-esb/install/as8/nodeagents/agent1/agent/logs/server.log
IGNORE Redirecting application output to /export/home/russt/cvs/rtoesb/build/open-esb/install/as8/nodeagents/agent1/agent/logs/server.log
Command start-node-agent executed successfully.
 
list-node-agents
agent1 running
Command list-node-agents executed successfully.
 
Starting instance : instance1
Command start-instance executed successfully.
 
list-instances
instance1 running
sync not running
CAS-cluster1-inst1 not running
Command list-instances executed successfully.
