
-------------------------------------------------------------------
 Start Test : jbi-admin-cli00012
 Description: Test Verify Command
-------------------------------------------------------------------
-------------------------------------------------------------------
 Building the test artifacts
-------------------------------------------------------------------

-------------------------------------------------------------------
 Verify the jbi application sa1.jar
-------------------------------------------------------------------
verify-jbi-application-environment sa1.jar
 
Verify Application Results
--------------------------
Service Assembly Name       : SA1
Service Assembly Description: Test SA
Number of Service Units     : 1
All Components Installed    : false
IGNORE Template Zip Id             : C:\cygwin\d\main4\open-esb\install\as8\domains\JBITest\jbi\tmp\verifier\SA1-templates.zip
 
    Missing Components
    ------------------
    Component Name: test-component
 
    Endpoint Configuration
    ----------------------
    Endpoint Name    : http://sun.com/transform-file.wsdl/,transformService,filetxEP
    Service Unit Name: SA1-SU1
    Component Name   : test-component
    Verify Status    : UNKNOWN
 
    Endpoint Configuration
    ----------------------
    Endpoint Name    : http://sun.com/transform-file.wsdl/,transformService,AnotherEP
    Service Unit Name: SA1-SU1
    Component Name   : test-component
    Verify Status    : UNKNOWN
 
IGNORE Template files were created in directory C:/cygwin/d/main4/open-esb/ri-clients/jbi-admin-cli/bld/regress/testdata/tmp.
Command verify-jbi-application-environment executed successfully.

-------------------------------------------------------------------
 Verify the jbi application ping-sa.jar
-------------------------------------------------------------------
verify-jbi-application-environment sa1.jar
 
Verify Application Results
--------------------------
Service Assembly Name       : PingApp
Service Assembly Description: Represents the Service Assembly
Number of Service Units     : 1
All Components Installed    : true
IGNORE Template Zip Id             : C:\cygwin\d\main4\open-esb\install\as8\domains\JBITest\jbi\tmp\verifier\PingApp-templates.zip
 
    Endpoint Configuration
    ----------------------
    Endpoint Name    : http://ping/,PingService,PingPort
    Service Unit Name: PingApp-sun-http-binding
    Component Name   : sun-http-binding
    Verify Status    : RESOLVED
 
IGNORE Template files were created in directory C:/cygwin/d/main4/open-esb/ri-clients/jbi-admin-cli/bld/regress/testdata/tmp.
Command verify-jbi-application-environment executed successfully.

-------------------------------------------------------------------
 Verify the jbi application javaee-sa.jar
-------------------------------------------------------------------
verify-jbi-application-environment javaee.jar
 
Verify Application Results
--------------------------
Service Assembly Name       : SA1
Service Assembly Description: Test SA
Number of Service Units     : 2
All Components Installed    : false
IGNORE Template Zip Id             : C:\cygwin\d\main4\open-esb\install\as8\domains\JBITest\jbi\tmp\verifier\SA1-templates.zip
 
    Missing Components
    ------------------
    Component Name: test-component
 
    Endpoint Configuration
    ----------------------
    Endpoint Name    : http://sun.com/transform-file.wsdl/,transformService,filetxEP
    Service Unit Name: SA1-SU1
    Component Name   : test-component
    Verify Status    : UNKNOWN
 
    Endpoint Configuration
    ----------------------
    Endpoint Name    : http://sun.com/transform-file.wsdl/,transformService,AnotherEP
    Service Unit Name: SA1-SU1
    Component Name   : test-component
    Verify Status    : UNKNOWN
 
IGNORE Template files were created in directory C:/cygwin/d/main4/open-esb/ri-clients/jbi-admin-cli/bld/regress/testdata/tmp.
Command verify-jbi-application-environment executed successfully.

-------------------------------------------------------------------
 Install test components test-component and test-component1
-------------------------------------------------------------------
install-jbi-component test-component.jar
install-jbi-component test-component1.jar
Installed component test-component.
Installed component test-component1.

-------------------------------------------------------------------
 Verify the jbi application test-sa.jar
-------------------------------------------------------------------
verify-jbi-application-environment test-sa.jar
 
Verify Application Results
--------------------------
Service Assembly Name       : SA1
Service Assembly Description: Test SA
Number of Service Units     : 2
All Components Installed    : true
IGNORE Template Zip Id             : C:\cygwin\d\main4\open-esb\install\as8\domains\JBITest\jbi\tmp\verifier\SA1-templates.zip
 
    Endpoint Configuration
    ----------------------
    Endpoint Name    : http://sun.com/transform-file.wsdl/,transformService,filetxEP2
    Service Unit Name: SA1-SU2
    Component Name   : test-component1
    Verify Status    : UNRESOLVED
 
        Missing Application Variables
        -----------------------------
        PROCESSED_LOCATION
        NEW_LOCATION
 
        Missing Application Configurations
        ----------------------------------
        MyAppConfig3
 
    Endpoint Configuration
    ----------------------
    Endpoint Name    : http://sun.com/transform-file.wsdl/,transformService,filetxEP
    Service Unit Name: SA1-SU1
    Component Name   : test-component
    Verify Status    : UNRESOLVED
 
        Missing Application Variables
        -----------------------------
        INPUT_LOCATION
        OUTPUT_LOCATION
 
        Missing Application Configurations
        ----------------------------------
        MyAppConfig1
 
    Endpoint Configuration
    ----------------------
    Endpoint Name    : http://sun.com/transform-file.wsdl/,transformService,AnotherEP
    Service Unit Name: SA1-SU1
    Component Name   : test-component
    Verify Status    : UNRESOLVED
 
        Missing Application Variables
        -----------------------------
        GREETINGS
        INPUT_LOCATION
        OUTPUT_LOCATION
 
        Missing Application Configurations
        ----------------------------------
        MyAppConfig2
 
IGNORE Template files were created in directory C:/cygwin/d/main4/open-esb/ri-clients/jbi-admin-cli/bld/regress/testdata/tmp.
Command verify-jbi-application-environment executed successfully.
