admincommon00008: Test the application configuration management operations.
IGNORE jbi_instance_name is server
IGNORE IGNORE  jmx.provider is service:jmx:rmi:///jndi/rmi://Mystique01:10787/management/rmi-jmx-connector

BUILD SUCCESSFUL
IGNORE   1 second
Installing a component
IGNORE jmx connection info: (host=localhost, port=6949, secure=false, username=admin, target=server )
IGNORE file=D:/nikita/dev/jsr208/jnet/open-esb/ri-clients/jbi-admin-common/bld/regress/testdata/component-with-custom-mbean.jar
Install component succeeded. [
admin-common-binding-1
]

BUILD SUCCESSFUL
IGNORE   1 second
Starting a component
IGNORE jmx connection info: (host=localhost, port=6949, secure=false, username=admin, target=server )
  name=admin-common-binding-1
Start component succeeded. [
admin-common-binding-1
]

BUILD SUCCESSFUL
IGNORE   1 second
jbi_instance_name is server
IGNORE  jmx.provider is service:jmx:rmi:///jndi/rmi://Mystique01:10787/management/rmi-jmx-connector
Result of getApplicationConfigurations: {defaultConfig={connectionURL=http://www.sun.com, configurationName=defaultConfig, securityCredential=abc, securityPrincipal=administrator, jndienv.1=env2=value2, jndienv.0=env1=value1}}

BUILD SUCCESSFUL
IGNORE   2 seconds
jbi_instance_name is server
IGNORE  jmx.provider is service:jmx:rmi:///jndi/rmi://Mystique01:10787/management/rmi-jmx-connector
##### Result of addApplicationConfiguration = <jbi-task version="1.0" xmlns="http://java.sun.com/xml/ns/jbi/management-message"><jbi-task-result><frmwk-task-result><frmwk-task-result-details><task-result-details><task-id>addApplicationConfiguration</task-id><task-result>SUCCESS</task-result></task-result-details><locale>en</locale></frmwk-task-result-details></frmwk-task-result></jbi-task-result></jbi-task>

BUILD SUCCESSFUL
IGNORE   3 seconds
jbi_instance_name is server
IGNORE  jmx.provider is service:jmx:rmi:///jndi/rmi://Mystique01:10787/management/rmi-jmx-connector
Result of getApplicationConfigurations: {adminConfig={connectionURL=http://localhost:8080/sun, configurationName=adminConfig, securityCredential=adminadmin, securityPrincipal=admin, jndienv.1=n2=v2, jndienv.0=n1=v1}, defaultConfig={connectionURL=http://www.sun.com, configurationName=defaultConfig, securityCredential=abc, securityPrincipal=administrator, jndienv.1=env2=value2, jndienv.0=env1=value1}}

BUILD SUCCESSFUL
IGNORE   3 seconds
jbi_instance_name is server
IGNORE  jmx.provider is service:jmx:rmi:///jndi/rmi://Mystique01:10787/management/rmi-jmx-connector
##### Result of setApplicationConfiguration = <jbi-task version="1.0" xmlns="http://java.sun.com/xml/ns/jbi/management-message"><jbi-task-result><frmwk-task-result><frmwk-task-result-details><task-result-details><task-id>setApplicationConfiguration</task-id><task-result>SUCCESS</task-result></task-result-details><locale>en</locale></frmwk-task-result-details></frmwk-task-result></jbi-task-result></jbi-task>

BUILD SUCCESSFUL
IGNORE   2 seconds
jbi_instance_name is server
IGNORE  jmx.provider is service:jmx:rmi:///jndi/rmi://Mystique01:10787/management/rmi-jmx-connector
Result of getApplicationConfigurations: {adminConfig={connectionURL=http://localhost:8790/sun, configurationName=adminConfig, securityCredential=adminUser, securityPrincipal=admin, jndienv.1=name2=value2, jndienv.0=name1=value1}, defaultConfig={connectionURL=http://www.sun.com, configurationName=defaultConfig, securityCredential=abc, securityPrincipal=administrator, jndienv.1=env2=value2, jndienv.0=env1=value1}}

BUILD SUCCESSFUL
IGNORE   3 seconds
jbi_instance_name is server
IGNORE  jmx.provider is service:jmx:rmi:///jndi/rmi://Mystique01:10787/management/rmi-jmx-connector
##### Result of deleteApplicationConfiguration = <jbi-task version="1.0" xmlns="http://java.sun.com/xml/ns/jbi/management-message"><jbi-task-result><frmwk-task-result><frmwk-task-result-details><task-result-details><task-id>deleteApplicationConfiguration</task-id><task-result>SUCCESS</task-result></task-result-details><locale>en</locale></frmwk-task-result-details></frmwk-task-result></jbi-task-result></jbi-task>

BUILD SUCCESSFUL
IGNORE   2 seconds
jbi_instance_name is server
IGNORE  jmx.provider is service:jmx:rmi:///jndi/rmi://Mystique01:10787/management/rmi-jmx-connector
Result of getApplicationConfigurations: {defaultConfig={connectionURL=http://www.sun.com, configurationName=defaultConfig, securityCredential=abc, securityPrincipal=administrator, jndienv.1=env2=value2, jndienv.0=env1=value1}}

BUILD SUCCESSFUL
IGNORE   2 seconds
Shutting down a component
IGNORE jmx connection info: (host=localhost, port=6949, secure=false, username=admin, target=server )
  name=admin-common-binding-1
Shutdown component succeeded. [
admin-common-binding-1
]

BUILD SUCCESSFUL
IGNORE   1 second
Uninstalling a component
IGNORE jmx connection info: (host=localhost, port=6949, secure=false, username=admin, target=server )
  name=admin-common-binding-1
Uninstall component succeeded. [
admin-common-binding-1
]

BUILD SUCCESSFUL
IGNORE   1 second
