admincommon00005 : Test of common-client runtime logger commands.
jbi_instance_name is server
IGNORE jmx.provider is service:jmx:rmi:///jndi/rmi://blueman:10587/management/rmi-jmx-connector
testing server.
##### Result of  getRuntimeLoggerLevels ={com.sun.jbi=INFO, com.sun.jbi.framework=INFO, com.sun.jbi.management=INFO, com.sun.jbi.management.AdminService=INFO, com.sun.jbi.management.ConfigurationService=INFO, com.sun.jbi.management.DeploymentService=INFO, com.sun.jbi.management.InstallationService=INFO, com.sun.jbi.management.LoggingService=INFO, com.sun.jbi.messaging=INFO}
##### Result of  getRuntimeLoggerLevel =INFO
##### Result of  setRuntimeLoggerLevel() called.
##### Result of  getRuntimeLoggerLevel =FINER
##### Result of  setRuntimeLoggerLevel() called.
##### Result of  getRuntimeLoggerLevel =INFO
##### Result of  getRuntimeLoggerLevel: caught expected exception.
##### Result of  setRuntimeLoggerLevel: caught expected exception.
##### Result of  getRuntimeLoggerNames ={Administration Service=com.sun.jbi.management.AdminService, Configuration Service=com.sun.jbi.management.ConfigurationService, Deployment Service=com.sun.jbi.management.DeploymentService, Framework=com.sun.jbi.framework, Installation Service=com.sun.jbi.management.InstallationService, JBI=com.sun.jbi, Logging Service=com.sun.jbi.management.LoggingService, Management Service=com.sun.jbi.management, Messaging Service=com.sun.jbi.messaging}
##### Result of  getRuntimeLoggerDisplayName =Framework
##### Result of  getRuntimeLoggerDisplayName: caught expected exception.
BUILD SUCCESSFUL
IGNORE Total time: 5 seconds
