Starting framework for tests
Removing destinations
Destinations destroyed
Creating destinations
Destinations created
Listing destinations
send_queue       Queue  RUNNING  0          0          0      0      0.0
receive_queue    Queue  RUNNING  0          0          0      0      0.0
temporary_queue  Queue  RUNNING  0          0          0      0      0.0
external_queue   Queue  RUNNING  0          0          0      0      0.0
send_topic       Topic  RUNNING  0          0          0      0      0.0
receive_topic    Topic  RUNNING  0          0          0      0      0.0
List destinations DONE
Creating Lookup names in object store








Created lookup names
Listing lookup names
send_queue         com.sun.messaging.Queue
receive_queue      com.sun.messaging.Queue
temporary_queue    com.sun.messaging.Queue
external_queue     com.sun.messaging.Queue
send_topic       com.sun.messaging.Topic
receive_topic    com.sun.messaging.Topic
MyQueueConnectionFactory    com.sun.messaging.QueueConnectionFactory
MyTopicConnectionFactory    com.sun.messaging.TopicConnectionFactory
Listed lookup names
Started the Test framework
