testing private library invocation for engines/bindings
Building PrivateLibraryTestEngine.jar
Done Building the Components

BUILD SUCCESSFUL
IGNORE Total time: 0 seconds
Installing a component
IGNORE  jmx connection info: (host=localhost, port=4849, username=admin, target=server )
IGNORE  file=C:/d/main2/open-esb/runtime/framework/bld/test-classes/dist/PrivateLibraryTestEngine.jar
Install component succeeded. [
PrivateLibraryTestEngine
]

BUILD SUCCESSFUL
IGNORE Total time: 0 seconds
Starting a component
IGNORE  jmx connection info: (host=localhost, port=4849, username=admin, target=server )
  name=PrivateLibraryTestEngine
Start component succeeded. [
PrivateLibraryTestEngine
]

BUILD SUCCESSFUL
IGNORE Total time: 0 seconds
Shutting down a component
IGNORE  jmx connection info: (host=localhost, port=4849, username=admin, target=server )
  name=PrivateLibraryTestEngine
Shutdown component succeeded. [
PrivateLibraryTestEngine
]

BUILD SUCCESSFUL
IGNORE Total time: 0 seconds
Uninstalling a component
IGNORE  jmx connection info: (host=localhost, port=4849, username=admin, target=server )
  name=PrivateLibraryTestEngine
Uninstall component succeeded. [
PrivateLibraryTestEngine
]

BUILD SUCCESSFUL
IGNORE Total time: 0 seconds
Private Library Invocation
      1 
