IGNORE asant -emacs -q -lib D:/chikkala/dev/open-esb-dev/gfmerge/main/open-esb/install/as8/jbi/lib/jbi-ant-tasks.jar -f D:/chikkala/dev/open-esb-dev/gfmerge/main/open-esb/install/as8/jbi/bin/jbi_admin.xml -Djbi.username=admin -Djbi.password=adminadmin -Djbi.port=17949 -Djbi.target=domain
 
 Usage : asant -f <fullpath>/jbi_admin.xml [options] [target] 
 options: -D<property>=<value>  
 Specify a property/value pairs as options that are valid for the target. 
 
 For help on using Ant targets for administration of Open ESB, 
 refer to the Project Open ESB Ant Target Reference. 
 
 This reference is available at 
 <AppServer-install-root>/jbi/doc/antdoc/jbi-ant-targets-reference.zip. 
 
 To view the reference, extract the contents of jbi-ant-targets-reference.zip 
 to a convenient location on your system. 
 
 
BUILD SUCCESSFUL
Total time: 0 seconds
