testname is manage00511
Before autoinstall ...
[jbi-list-service-engines] ============================================================
[jbi-list-service-engines]   List of Service Engines for Target "server"
[jbi-list-service-engines] ============================================================
[jbi-list-service-engines] No Service Engines were found for the specified query.
[jbi-list-service-engines] ------------------------------------------------------------

BUILD SUCCESSFUL
IGNORE Total time: 2 seconds
[jbi-list-shared-libraries] ============================================================
[jbi-list-shared-libraries]   List of Shared Libraries for Target "server"
[jbi-list-shared-libraries] ============================================================
[jbi-list-shared-libraries] There is no shared library found with the name = b3c97e99-bcb2-4ee0-95e4-60e1cf1408aa
[jbi-list-shared-libraries]  and with other query parameters specified.
[jbi-list-shared-libraries] ------------------------------------------------------------

BUILD SUCCESSFUL
IGNORE Total time: 1 second
Copying component and shared library installers into autoinstall directory.
After autoinstall ...
IGNORE File count: /blueman2/d/open-esb2/open-esb/install/jbise/jbi/server/jbi/autoinstall
       5
IGNORE File count: /blueman2/d/open-esb2/open-esb/install/jbise/jbi/server/jbi/autoinstall/.autoinstallstatus
       5
autoinstalled area success files
       2
       0
autoinstalled area failed files
       0
       0
recursive listing
./.autoinstallstatus/calc.jar
./.autoinstallstatus/calc.jar--comp--JbiCalculator
./.autoinstallstatus/sns1.jar
./.autoinstallstatus/sns1.jar--sl--b3c97e99-bcb2-4ee0-95e4-60e1cf1408aa
./calc.jar
./calc.jar_installed
./sns1.jar
./sns1.jar_installed
After autoinstall ...
[jbi-list-service-engines] ============================================================
[jbi-list-service-engines]   List of Service Engines for Target "server"
[jbi-list-service-engines] ============================================================
[jbi-list-service-engines] Name       : JbiCalculator
[jbi-list-service-engines] State      : Started
[jbi-list-service-engines] Description: This is the slowest calculator in the world.
[jbi-list-service-engines] ------------------------------------------------------------

BUILD SUCCESSFUL
IGNORE Total time: 1 second
[jbi-list-shared-libraries] ============================================================
[jbi-list-shared-libraries]   List of Shared Libraries for Target "server"
[jbi-list-shared-libraries] ============================================================
[jbi-list-shared-libraries] Name       : b3c97e99-bcb2-4ee0-95e4-60e1cf1408aa
[jbi-list-shared-libraries] State      : Installed
[jbi-list-shared-libraries] Description: This is a shared library.
[jbi-list-shared-libraries] ------------------------------------------------------------

BUILD SUCCESSFUL
IGNORE Total time: 1 second
After reinstall ...
IGNORE File count: /blueman2/d/open-esb2/open-esb/install/jbise/jbi/server/jbi/autoinstall
       5
IGNORE File count: /blueman2/d/open-esb2/open-esb/install/jbise/jbi/server/jbi/autoinstall/.autoinstallstatus
       5
autoinstalled area success files
       2
       0
autoinstalled area failed files
       0
       0
recursive listing
./.autoinstallstatus/calc.jar
./.autoinstallstatus/calc.jar--comp--mathlib1
./.autoinstallstatus/sns1.jar
./.autoinstallstatus/sns1.jar--sl--b3c97e99-bcb2-4ee0-95e4-60e1cf1408aa
./calc.jar
./calc.jar_installed
./sns1.jar
./sns1.jar_installed
After reinstall ...
[jbi-list-service-engines] ============================================================
[jbi-list-service-engines]   List of Service Engines for Target "server"
[jbi-list-service-engines] ============================================================
[jbi-list-service-engines] Name       : mathlib1
[jbi-list-service-engines] State      : Started
[jbi-list-service-engines] Description: This is a sample Math library
[jbi-list-service-engines] ------------------------------------------------------------

BUILD SUCCESSFUL
IGNORE Total time: 1 second
[jbi-list-shared-libraries] ============================================================
[jbi-list-shared-libraries]   List of Shared Libraries for Target "server"
[jbi-list-shared-libraries] ============================================================
[jbi-list-shared-libraries] Name       : b3c97e99-bcb2-4ee0-95e4-60e1cf1408aa
[jbi-list-shared-libraries] State      : Installed
[jbi-list-shared-libraries] Description: This is a shared library.
[jbi-list-shared-libraries] ------------------------------------------------------------

BUILD SUCCESSFUL
IGNORE Total time: 1 second
After autouninstall ...
IGNORE File count: /blueman2/d/open-esb2/open-esb/install/jbise/jbi/server/jbi/autoinstall
       3
IGNORE File count: /blueman2/d/open-esb2/open-esb/install/jbise/jbi/server/jbi/autoinstall/.autoinstallstatus
IGNORE        1
autoinstalled area success files
       0
       2
autoinstalled area failed files
       0
       0
recursive listing
./calc.jar_uninstalled
./sns1.jar_uninstalled
After uninstall ...
[jbi-list-service-engines] ============================================================
[jbi-list-service-engines]   List of Service Engines for Target "server"
[jbi-list-service-engines] ============================================================
[jbi-list-service-engines] No Service Engines were found for the specified query.
[jbi-list-service-engines] ------------------------------------------------------------

BUILD SUCCESSFUL
IGNORE Total time: 1 second
[jbi-list-shared-libraries] ============================================================
[jbi-list-shared-libraries]   List of Shared Libraries for Target "server"
[jbi-list-shared-libraries] ============================================================
[jbi-list-shared-libraries] There is no shared library found with the name = b3c97e99-bcb2-4ee0-95e4-60e1cf1408aa
[jbi-list-shared-libraries]  and with other query parameters specified.
[jbi-list-shared-libraries] ------------------------------------------------------------

BUILD SUCCESSFUL
IGNORE Total time: 1 second
IGNORE Unloading JBI framework in response to VM termination.
IGNORE JBI framework shutdown complete.
IGNORE JBI framework has been unloaded.
