now calling ant to reinstall the calculator in a broken way
IGNORE JBI_HOME is C:\cygwin\home\kcbabo\gfmerge\build\open-esb\install\as8/jbi
IGNORE JBI_DOMAIN_ROOT is C:/cygwin/home/kcbabo/gfmerge/build/open-esb/install/as8/domains/domain1
IGNORE jbi_instance_name is domain1
IGNORE jbi_target_name is server
IGNORE jmx.provider is service:jmx:rmi:///jndi/rmi://nullset:18686/management/rmi-jmx-connector
IGNORE calcinstaller is file:/C:\cygwin\home\kcbabo\gfmerge\build\open-esb\install\as8/jbi/components/jbicalc/installers/calc.jar
about to invoke loadNewInstaller.
resulting bean is 'com.sun.jbi:Target=server,ServiceType=Installer,ComponentName=JbiCalculator'
now calling getInstallerConfigurationMBean() on that bean.
IGNORE resulting bean is 'com.sun.jbi:JbiName=domain1,CustomControlName=InstallerExtensionMBean,ComponentName=JbiCalculator,ControlType=Custom,ComponentType=Installed,InstalledType=Engine'
now setting/getting config variables.
Proxy: 'webcache.sfbay.sun.com' on port '8080'.
now invoking install() on the component.
installerresults is 'com.sun.jbi:Target=server,ServiceType=ComponentLifeCycle,ComponentName=JbiCalculator'
now the weird part ... calling loadInstaller.
loadInstaller() -> com.sun.jbi:Target=server,ServiceType=Installer,ComponentName=JbiCalculator.
calling loadInstaller again.
loadInstaller() -> com.sun.jbi:Target=server,ServiceType=Installer,ComponentName=JbiCalculator.
now unloading the component installer.
results: true
now unloading the component installer AGAIN.
results: false
now lookup the lifecycle MBean
lifeCycle mbean is 'com.sun.jbi:Target=server,ServiceType=ComponentLifeCycle,ComponentName=JbiCalculator'
now start the component
start result is ''
now stop the component
stop result is ''
now shut down the component
shut down result is ''
getting ready to uninstall the component.
loadInstaller() -> com.sun.jbi:Target=server,ServiceType=Installer,ComponentName=JbiCalculator.
and again...
loadInstaller() -> com.sun.jbi:Target=server,ServiceType=Installer,ComponentName=JbiCalculator.
now calling getInstallerConfigurationMBean() on that installer
now setting/getting config variables.
Proxy: 'testcache.sfbay.sun.com' on port '80'.
now invoking uninstall() on that bean.
uninstallresults is ''
lastly, cleaning up...
results: true

BUILD SUCCESSFUL
IGNORE Total time: 7 seconds
has been installed
IGNORE 7
has been uninstalled
IGNORE 5
exceptions
IGNORE 1
