sequencingengine00003.ksh- Start sequencing engine test
Starting a component
IGNORE   jmx connection info: (host=localhost, port=31387, username=admin)
  name=SunSequencingEngine
Start component succeeded. [
SunSequencingEngine
]

BUILD SUCCESSFUL
IGNORE Total time: 3 seconds
Completed Starting sequencing engine
