
BUILD SUCCESSFUL
IGNORE Total time: 0 seconds
[i18n-echo] Installing a component
IGNORE [i18n-echo]   jmx connection info: (host=localhost, port=8699, secure=false, username=admin, target=server )
IGNORE [i18n-echo]   file=C:/development/build/open-esb/runtime/framework/bld/test-classes/dist/ext-engine.jar
[jbi-install-component] Install component succeeded. [
[jbi-install-component] test-extension-component
[jbi-install-component] ]

BUILD SUCCESSFUL
IGNORE Total time: 1 second
[i18n-echo] Starting a component
IGNORE [i18n-echo]   jmx connection info: (host=localhost, port=8699, secure=false, username=admin, target=server )
IGNORE [i18n-echo]   name=test-extension-component
[jbi-start-component] Start component succeeded. [
[jbi-start-component] test-extension-component
[jbi-start-component] ]

BUILD SUCCESSFUL
IGNORE Total time: 0 seconds
[jbi-list-service-engines] ============================================================
[jbi-list-service-engines]   List of Service Engines for Target "server"
[jbi-list-service-engines] ============================================================
[jbi-list-service-engines] Name       : test-extension-component
[jbi-list-service-engines] State      : Started
[jbi-list-service-engines] Description: Component used for extension tests.
[jbi-list-service-engines] ------------------------------------------------------------

BUILD SUCCESSFUL
IGNORE Total time: 0 seconds
[i18n-echo] Shutting down a component
IGNORE [i18n-echo]   jmx connection info: (host=localhost, port=8699, secure=false, username=admin, target=server )
[i18n-echo]   name=test-extension-component
[jbi-shut-down-component] Shutdown component succeeded. [
[jbi-shut-down-component] test-extension-component
[jbi-shut-down-component] ]

BUILD SUCCESSFUL
IGNORE Total time: 0 seconds
[i18n-echo] Uninstalling a component
IGNORE [i18n-echo]   jmx connection info: (host=localhost, port=8699, secure=false, username=admin, target=server )
[i18n-echo]   name=test-extension-component
[jbi-uninstall-component] Uninstall component succeeded. [
[jbi-uninstall-component] test-extension-component
[jbi-uninstall-component] ]

BUILD SUCCESSFUL
IGNORE Total time: 0 seconds
IGNORE JBI framework has been unloaded.
IGNORE Unloading JBI framework in response to VM termination.
IGNORE JBI framework shutdown complete.
